{
  "uid" : "98d3104e051c652961429bf95fa0b5d6",
  "name" : "suites",
  "children" : [ {
    "name" : "testcases",
    "children" : [ {
      "name" : "test_add_blogs",
      "children" : [ {
        "name" : "test_add_blogs",
        "uid" : "9d1bf28373b11361",
        "parentUid" : "49fea4090a34c029d370e0ea76e444cb",
        "status" : "skipped",
        "time" : {
          "start" : 1664336138569,
          "stop" : 1664336138569,
          "duration" : 0
        },
        "flaky" : false,
        "newFailed" : false,
        "parameters" : [ ]
      } ],
      "uid" : "49fea4090a34c029d370e0ea76e444cb"
    }, {
      "name" : "test_login",
      "children" : [ {
        "name" : "test_error_account_login[2462824640@qq.com-123456]",
        "uid" : "b6513a2a63a5c8f8",
        "parentUid" : "ab70c067fdfc04844e6dad4d931d9fae",
        "status" : "passed",
        "time" : {
          "start" : 1664336138572,
          "stop" : 1664336145217,
          "duration" : 6645
        },
        "flaky" : false,
        "newFailed" : false,
        "parameters" : [ "'123456'", "'2462824640@qq.com'" ]
      }, {
        "name" : "test_error_account_login[2462824641@qq.com-shichuaN920807]",
        "uid" : "911a2a2efe4225a4",
        "parentUid" : "ab70c067fdfc04844e6dad4d931d9fae",
        "status" : "passed",
        "time" : {
          "start" : 1664336145224,
          "stop" : 1664336151705,
          "duration" : 6481
        },
        "flaky" : false,
        "newFailed" : false,
        "parameters" : [ "'shichuaN920807'", "'2462824641@qq.com'" ]
      }, {
        "name" : "test_corret_account_login",
        "uid" : "fdedc58e0c6dda1f",
        "parentUid" : "ab70c067fdfc04844e6dad4d931d9fae",
        "status" : "failed",
        "time" : {
          "start" : 1664336151711,
          "stop" : 1664336160915,
          "duration" : 9204
        },
        "flaky" : false,
        "newFailed" : false,
        "parameters" : [ ]
      } ],
      "uid" : "ab70c067fdfc04844e6dad4d931d9fae"
    } ],
    "uid" : "b51346658ccdb9db01a6b5f6c12deab1"
  } ]
}