[ {
  "uid" : "b6513a2a63a5c8f8",
  "name" : "test_error_account_login[2462824640@qq.com-123456]",
  "time" : {
    "start" : 1664336138572,
    "stop" : 1664336145217,
    "duration" : 6645
  },
  "status" : "passed",
  "severity" : "normal"
}, {
  "uid" : "9d1bf28373b11361",
  "name" : "test_add_blogs",
  "time" : {
    "start" : 1664336138569,
    "stop" : 1664336138569,
    "duration" : 0
  },
  "status" : "skipped",
  "severity" : "normal"
}, {
  "uid" : "911a2a2efe4225a4",
  "name" : "test_error_account_login[2462824641@qq.com-shichuaN920807]",
  "time" : {
    "start" : 1664336145224,
    "stop" : 1664336151705,
    "duration" : 6481
  },
  "status" : "passed",
  "severity" : "normal"
}, {
  "uid" : "fdedc58e0c6dda1f",
  "name" : "test_corret_account_login",
  "time" : {
    "start" : 1664336151711,
    "stop" : 1664336160915,
    "duration" : 9204
  },
  "status" : "failed",
  "severity" : "normal"
} ]